German Term	Encoding	English Translation
Becher	Be	Beaker
Schale (Bowl)	B	Flat bowl
Schüssel	S	Deep bowl
Schnabelkanne	SK	Beak-spouted jug
Pithosschnabelkanne	PSK	Beak-spouted storage vessel
Topf mit Trichterrand	T	Pot
Tüllenkanne	TK	Tubular-spouted jug
Offene Tüllenkanne	oTK	Open tubular-spouted jug
Geschlossene Tüllenkanne	gTK	Closed Tubular-spouted jug
Vorratsgefäſ	VG	Large storage vessel
Kruge	K	Jar
Flasche	F	Bottle
Vexiergefäß	V	Puzzle jug
		
Nicht Inventarisiert	N.I.	Without small find number
Kleinfundnummer	KfNr	Small find number
Fragment	Frgmt	Fragment
