<?xml version="1.0" encoding="UTF-8" standalone="no"?>
<!-- Created with Inkscape (http://www.inkscape.org/) -->

<svg
   xmlns:dc="http://purl.org/dc/elements/1.1/"
   xmlns:cc="http://creativecommons.org/ns#"
   xmlns:rdf="http://www.w3.org/1999/02/22-rdf-syntax-ns#"
   xmlns:svg="http://www.w3.org/2000/svg"
   xmlns="http://www.w3.org/2000/svg"
   version="1.1"
   width="147.30827"
   height="129.76256"
   id="svg4048">
  <title
     id="title4631">Fischer1963-660</title>
  <defs
     id="defs4050" />
  <metadata
     id="metadata4053">
    <rdf:RDF>
      <cc:Work
         rdf:about="">
        <dc:format>image/svg+xml</dc:format>
        <dc:type
           rdf:resource="http://purl.org/dc/dcmitype/StillImage" />
        <dc:title>Fischer1963-660</dc:title>
        <cc:license
           rdf:resource="http://creativecommons.org/licenses/by/3.0/" />
        <dc:creator>
          <cc:Agent>
            <dc:title>Néhémie Strupler</dc:title>
          </cc:Agent>
        </dc:creator>
        <dc:description>Pottery Drawing </dc:description>
        <dc:contributor>
          <cc:Agent>
            <dc:title />
          </cc:Agent>
        </dc:contributor>
        <dc:subject>
          <rdf:Bag>
            <rdf:li>Pottery</rdf:li>
            <rdf:li>Drawing</rdf:li>
            <rdf:li>Boğazköy</rdf:li>
            <rdf:li>Bogazkoy</rdf:li>
            <rdf:li>Hattusa</rdf:li>
            <rdf:li>Middle Bronze Age</rdf:li>
            <rdf:li>Turkey</rdf:li>
          </rdf:Bag>
        </dc:subject>
        <dc:date>2015-11-04</dc:date>
        <dc:rights>
          <cc:Agent>
            <dc:title>Néhémie Strupler</dc:title>
          </cc:Agent>
        </dc:rights>
        <dc:relation />
      </cc:Work>
      <cc:License
         rdf:about="http://creativecommons.org/licenses/by/3.0/">
        <cc:permits
           rdf:resource="http://creativecommons.org/ns#Reproduction" />
        <cc:permits
           rdf:resource="http://creativecommons.org/ns#Distribution" />
        <cc:requires
           rdf:resource="http://creativecommons.org/ns#Notice" />
        <cc:requires
           rdf:resource="http://creativecommons.org/ns#Attribution" />
        <cc:permits
           rdf:resource="http://creativecommons.org/ns#DerivativeWorks" />
      </cc:License>
    </rdf:RDF>
  </metadata>
  <g
     transform="translate(-79.705124,-99.667477)"
     id="layer1" />
  <rect
     width="5.5999999"
     height="87.300003"
     x="0.125"
     y="29.587648"
     id="rect428"
     style="fill:#ffffff;stroke:#231f20;stroke-width:0.25" />
  <rect
     width="2.8"
     height="8.6999998"
     x="0.125"
     y="29.487673"
     id="rect430"
     style="fill:#ffffff;stroke:#231f20;stroke-width:0.25" />
  <rect
     width="2.8"
     height="8.6999998"
     x="0.125"
     y="38.187626"
     id="rect432"
     style="fill:#000000;fill-opacity:1;stroke:#000000;stroke-width:0.25;stroke-opacity:1" />
  <rect
     width="2.8"
     height="8.6999998"
     x="0.125"
     y="46.887638"
     id="rect434"
     style="fill:#ffffff;stroke:#231f20;stroke-width:0.25" />
  <rect
     width="2.8"
     height="8.6999998"
     x="0.125"
     y="55.58765"
     id="rect436"
     style="fill:#000000;fill-opacity:1;stroke:#000000;stroke-width:0.25;stroke-opacity:1" />
  <rect
     width="2.8"
     height="8.6999998"
     x="0.125"
     y="64.387634"
     id="rect438"
     style="fill:#ffffff;stroke:#231f20;stroke-width:0.25" />
  <rect
     width="2.8"
     height="43.599998"
     x="0.125"
     y="73.087646"
     id="rect440"
     style="fill:#000000;fill-opacity:1;stroke:#000000;stroke-width:0.25;stroke-opacity:1" />
  <rect
     width="2.8"
     height="8.6999998"
     x="3.0250244"
     y="29.487673"
     id="rect442"
     style="fill:#000000;fill-opacity:1;stroke:#000000;stroke-width:0.25;stroke-opacity:1" />
  <rect
     width="2.8"
     height="8.6999998"
     x="3.0250244"
     y="38.187626"
     id="rect444"
     style="fill:#ffffff;stroke:#231f20;stroke-width:0.25" />
  <rect
     width="2.8"
     height="8.6999998"
     x="3.0250244"
     y="46.887638"
     id="rect446"
     style="fill:#000000;fill-opacity:1;stroke:#000000;stroke-width:0.25;stroke-opacity:1" />
  <rect
     width="2.8"
     height="8.6999998"
     x="3.0250244"
     y="55.58765"
     id="rect448"
     style="fill:#ffffff;stroke:#231f20;stroke-width:0.25" />
  <rect
     width="2.8"
     height="8.6999998"
     x="3.0250244"
     y="64.387634"
     id="rect450"
     style="fill:#000000;fill-opacity:1;stroke:#000000;stroke-width:0.25;stroke-opacity:1" />
  <rect
     width="2.8"
     height="43.599998"
     x="3.0250244"
     y="73.087646"
     id="rect452"
     style="fill:#ffffff;stroke:#231f20;stroke-width:0.25" />
  <text
     x="7.8667226"
     y="31.693914"
     transform="scale(1.0069757,0.99307263)"
     id="text454"
     style="font-size:8.05580521px;fill:#000000;fill-opacity:1;font-family:SansSerif">0</text>
  <text
     x="7.6941762"
     y="75.742744"
     transform="scale(1.0069757,0.99307263)"
     id="text456"
     style="font-size:8.05580521px;fill:#000000;fill-opacity:1;font-family:SansSerif">50</text>
  <text
     x="6.1996694"
     y="119.2187"
     transform="scale(1.0069757,0.99307263)"
     id="text458"
     style="font-size:8.05580521px;fill:#000000;fill-opacity:1;font-family:SansSerif">100 cm</text>
  <g
     transform="translate(-77.928905,-8.275)"
     id="g392">
    <path
       d="m 125.1,57.2 c 0,0 -0.5,-1.4 -1.5,-0.8 -1,0.6 -1.7,3.9 -1.7,4.3 0,0.3 -0.1,2.6 2.6,0.7"
       id="path394"
       style="fill:none;stroke:#000000;stroke-width:0.5;stroke-opacity:1" />
    <g
       id="g396">
      <path
         d="m 191.8,8.6 c 0.2,0.1 0.4,0.3 0.4,0.3 0,0 -3.3,6.5 1.5,9.1 4.8,2.6 11.6,7.4 14.2,10.9 2.6,3.6 7.2,12.1 8.1,15.8 0.9,3.7 2.7,13.5 3,14.8 0.3,1.3 0.8,11.9 0.2,15.4 -0.6,3.5 -1.4,5.9 -1.4,5.9 0,0 -5.3,6.5 -9,9.7 -3.8,3.2 -10.9,9.4 -13.7,14.4 0,0 -8.5,11 -9.9,12.3 -1.3,1.3 -5.4,5.4 -5.7,5.7 -0.3,0.3 -1.4,2.1 -1.4,2.5 h -6.4 V 124 c 0,0 2,0.2 4.2,-0.9 2.2,-1.1 8.5,-7.5 10.8,-10.7 2.3,-3.3 8,-10.4 8.6,-11.6 0.7,-1.1 8.7,-8.9 9.3,-9.5 0.6,-0.6 9.7,-9.1 10.9,-10.3 1.2,-1.2 1.6,-4.2 1.8,-4.5 0.2,-0.3 0.8,-12.4 -1.2,-21.4 -2,-8.9 -3.9,-16.8 -6.5,-20.4 -2.6,-3.7 -4.3,-6.5 -9.2,-10.4 -4.9,-3.9 -10,-5.3 -10.8,-7.2 -0.8,-1.9 -1.1,-4.6 -0.1,-6.6 1,-2 1.2,-1.5 1.6,-1.9 0.4,-0.1 0.5,-0.1 0.7,0 z"
         id="path398"
         style="fill:#000000;fill-opacity:1;stroke:#231f20;stroke-width:0.5" />
      <path
         d="m 217.1,49.6 c 0.9,1.4 2.3,3.3 3.3,3.9 1.5,0.9 5.2,5.6 4.5,8.4 -0.7,2.8 -3.5,6.7 -3.7,6.9 -0.1,0.1 -1.2,1.6 -1.7,2.6"
         id="path400"
         style="fill:none;stroke:#231f20;stroke-width:0.5" />
      <path
         d="m 218.6,57.2 c 0,0 0.5,-1.4 1.5,-0.8 1,0.6 1.7,3.9 1.7,4.3 0,0.3 0.1,2.6 -2.6,0.7"
         id="path402"
         style="fill:none;stroke:#231f20;stroke-width:0.5" />
      <path
         d="M 143.1,24.3"
         id="path404"
         style="fill:none;stroke:#000000;stroke-width:0.5;stroke-opacity:1" />
      <path
         d="m 151.9,8.6 c -0.2,0.1 -0.4,0.2 -0.4,0.3 -0.4,2.3 3.3,6.5 -1.5,9.1 -4.8,2.6 -11.6,7.4 -14.2,10.9 -2.6,3.6 -7.2,12.1 -8.1,15.8 -0.9,3.7 -2.7,13.5 -3,14.8 -0.3,1.3 -0.8,11.9 -0.2,15.4 0.5,3.5 1.4,5.9 1.4,5.9 0,0 5.3,6.5 9,9.7 3.8,3.2 10.9,9.4 13.7,14.4 0,0 8.5,11 9.9,12.3 1.4,1.3 5.4,5.4 5.7,5.7 0.3,0.3 1.4,2.1 1.4,2.5 h 6.4"
         id="path406"
         style="fill:none;stroke:#000000;stroke-width:0.5;stroke-opacity:1" />
      <path
         d="M 152.4,8.6"
         id="path408"
         style="fill:none;stroke:#000000;stroke-width:0.5;stroke-opacity:1" />
      <path
         d="m 126.6,49.6 c -0.9,1.4 -2.3,3.3 -3.3,3.9 -1.5,0.9 -5.2,5.6 -4.5,8.4 0.7,2.8 3.5,6.7 3.7,6.9 0.1,0.1 1.2,1.6 1.7,2.6"
         id="path410"
         style="fill:none;stroke:#000000;stroke-width:0.5;stroke-opacity:1" />
      <line
         style="fill:none;stroke:#231f20;stroke-width:0.5"
         x1="171.89999"
         y1="22.299999"
         x2="171.89999"
         y2="8.6000004"
         id="line412" />
      <polyline
         style="fill:none;stroke:#000000;stroke-width:0.5;stroke-opacity:1"
         points="171.9,125.4 171.9,30.1 171.9,28.1   "
         id="polyline414" />
      <line
         style="fill:none;stroke:#000000;stroke-width:0.5;stroke-opacity:1"
         x1="151.89999"
         y1="8.6000004"
         x2="188.7"
         y2="8.6000004"
         id="line416" />
      <path
         d="m 173.3,24.3 c 0,0.1 0,0.1 0,0.2 -0.1,0.1 -0.3,0.1 -0.5,0.2 -0.1,0 -0.2,0.2 -0.5,0.1 0,-0.2 0.2,-0.2 0.4,-0.2 0.1,-0.2 0.3,-0.3 0.6,-0.3 z"
         id="path418"
         style="fill-rule:evenodd" />
      <path
         d="m 174.4,26.8 c -0.1,0.1 -0.2,0.1 -0.2,0 -0.1,0 -0.1,0.2 -0.2,0.2 -0.5,0.2 -1.2,0.3 -1.8,0.4 -0.2,0 -0.5,0.2 -0.7,0 0,-0.2 0.3,-0.1 0.4,-0.2 0.4,0 1,-0.1 1.4,-0.2 0.2,-0.1 0.5,-0.2 0.6,-0.3 0,-0.1 -0.1,-0.1 -0.1,-0.1 -0.1,0 -0.1,0.1 -0.2,0.1 -0.4,0.1 -1,0.1 -1.5,0.1 -0.1,0 -0.2,0.1 -0.3,0 0,-0.2 0.2,-0.1 0.3,-0.1 0.5,0 1.1,0 1.5,-0.2 0,-0.2 -0.1,-0.3 -0.2,-0.3 -0.2,0.1 -0.4,0.2 -0.7,0.3 -0.1,0 -0.1,0 -0.1,0 0,0 -0.1,0 -0.2,0.1 -0.2,0 -0.5,0.2 -0.7,0 0.1,-0.2 0.3,-0.1 0.5,-0.1 0.1,0 0.2,-0.1 0.4,-0.1 0.2,0 0.6,0 0.9,-0.3 -0.1,-0.2 0,-0.6 0,-0.8 -0.3,-0.1 -0.3,0.2 -0.3,0.5 -0.1,0.1 -0.2,0.1 -0.3,0.2 0,0.1 0.2,0 0.1,0.1 -0.4,0 -0.8,0.3 -1.2,0.2 0.3,-0.2 0.7,-0.2 1.1,-0.3 -0.2,-0.1 -0.3,0 -0.5,0 -0.1,-0.1 -0.3,-0.2 -0.5,-0.2 0.1,-0.2 0.4,-0.2 0.6,-0.2 -0.1,-0.1 -0.3,0 -0.5,0 -0.5,0 -1,-0.1 -1.4,-0.2 -0.1,0.1 0,0.3 -0.1,0.6 0,0.2 -0.2,0.6 -0.4,0.8 -0.1,0.2 -0.5,0.5 -0.6,0.2 0,-0.2 0.2,-0.2 0.3,-0.3 0.3,-0.4 0.6,-0.7 0.5,-1.2 -0.1,-0.4 -0.6,-0.5 -0.5,-0.9 0,-0.2 0.2,-0.2 0.2,-0.4 0.4,-0.3 0.6,-0.6 1,-1 0.3,-0.2 0.6,-0.5 1.1,-0.4 0.3,0 0.5,0.2 0.7,0.4 0.3,0.2 0.5,0.5 0.8,0.8 0.3,0.3 0.9,0.8 0.2,1.1 -0.1,0.3 -0.2,0.8 0,1.1 0.2,0.3 0.5,0.3 0.7,0.4 -0.1,0.1 -0.1,0.1 -0.1,0.2 z m -1.3,-1.7 c 0.1,0 0.1,0.1 0.2,0 0.1,-0.1 0.3,-0.2 0.4,-0.2 0,-0.1 0.1,-0.1 0,-0.1 -0.1,0.1 -0.4,0.3 -0.7,0.3 -0.1,0 -0.4,0 -0.5,-0.1 0.1,-0.1 0.3,0 0.4,-0.1 0.3,0 0.5,-0.1 0.8,-0.2 0,-0.2 -0.2,-0.3 -0.4,-0.4 0.1,-0.1 -0.1,-0.2 -0.2,-0.3 -0.1,0.1 -0.1,0.1 -0.2,0.2 -0.2,0.1 -0.5,0.3 -0.8,0.1 0.2,-0.3 0.8,-0.2 0.9,-0.5 -0.1,-0.2 -0.3,0 -0.4,0.1 -0.2,0 -0.4,0.3 -0.6,0.1 0.1,-0.3 0.6,-0.2 0.7,-0.5 -0.1,0 -0.1,-0.2 -0.2,-0.1 -0.1,0.1 -0.2,0.2 -0.3,0.3 -0.1,0 -0.2,-0.1 -0.2,-0.3 0,-0.1 0.1,-0.1 0.1,-0.2 -0.5,-0.2 -0.7,0.1 -1,0.3 -0.2,0.2 -0.3,0.4 -0.5,0.5 -0.3,0.2 -0.6,0.4 -0.6,0.7 0.4,0.7 2.3,0.7 3.1,0.4 z m -0.5,0.4 c 0,0 0.1,-0.1 0,0 0,-0.1 -0.1,-0.1 0,0 z m -0.2,0 c 0.1,0 0.1,0 0,0 0,-0.1 0,0 0,0 z"
         id="path420"
         style="fill-rule:evenodd" />
      <line
         style="fill:none;stroke:#231f20;stroke-width:0.5"
         x1="125.8"
         y1="80.699997"
         x2="170.7"
         y2="80.699997"
         id="line422" />
      <line
         style="fill:none;stroke:#231f20;stroke-width:0.5"
         x1="151.89999"
         y1="16.299999"
         x2="171.89999"
         y2="16.299999"
         id="line424" />
      <line
         style="fill:none;stroke:#000000;stroke-width:0.5;stroke-opacity:1"
         x1="189.89999"
         y1="18.1"
         x2="171.89999"
         y2="18.1"
         id="line426" />
    </g>
  </g>
  <text
     x="88.020302"
     y="129.64928"
     id="text566"
     style="font-size:8px;font-family:SansSerif">660</text>
</svg>
