<?xml version="1.0" encoding="UTF-8" standalone="no"?>
<!-- Created with Inkscape (http://www.inkscape.org/) -->

<svg
   xmlns:dc="http://purl.org/dc/elements/1.1/"
   xmlns:cc="http://creativecommons.org/ns#"
   xmlns:rdf="http://www.w3.org/1999/02/22-rdf-syntax-ns#"
   xmlns:svg="http://www.w3.org/2000/svg"
   xmlns="http://www.w3.org/2000/svg"
   version="1.1"
   width="142.1637"
   height="134.29614"
   id="svg4048">
  <title
     id="title4631">Fischer1963-663</title>
  <defs
     id="defs4050" />
  <metadata
     id="metadata4053">
    <rdf:RDF>
      <cc:Work
         rdf:about="">
        <dc:format>image/svg+xml</dc:format>
        <dc:type
           rdf:resource="http://purl.org/dc/dcmitype/StillImage" />
        <dc:title>Fischer1963-663</dc:title>
        <cc:license
           rdf:resource="http://creativecommons.org/licenses/by/3.0/" />
        <dc:creator>
          <cc:Agent>
            <dc:title>Néhémie Strupler</dc:title>
          </cc:Agent>
        </dc:creator>
        <dc:description>Pottery Drawing </dc:description>
        <dc:contributor>
          <cc:Agent>
            <dc:title />
          </cc:Agent>
        </dc:contributor>
        <dc:subject>
          <rdf:Bag>
            <rdf:li>Pottery</rdf:li>
            <rdf:li>Drawing</rdf:li>
            <rdf:li>Boğazköy</rdf:li>
            <rdf:li>Bogazkoy</rdf:li>
            <rdf:li>Hattusa</rdf:li>
            <rdf:li>Middle Bronze Age</rdf:li>
            <rdf:li>Turkey</rdf:li>
          </rdf:Bag>
        </dc:subject>
        <dc:date>2015-11-04</dc:date>
        <dc:rights>
          <cc:Agent>
            <dc:title>Néhémie Strupler</dc:title>
          </cc:Agent>
        </dc:rights>
        <dc:relation />
      </cc:Work>
      <cc:License
         rdf:about="http://creativecommons.org/licenses/by/3.0/">
        <cc:permits
           rdf:resource="http://creativecommons.org/ns#Reproduction" />
        <cc:permits
           rdf:resource="http://creativecommons.org/ns#Distribution" />
        <cc:requires
           rdf:resource="http://creativecommons.org/ns#Notice" />
        <cc:requires
           rdf:resource="http://creativecommons.org/ns#Attribution" />
        <cc:permits
           rdf:resource="http://creativecommons.org/ns#DerivativeWorks" />
      </cc:License>
    </rdf:RDF>
  </metadata>
  <g
     transform="translate(-79.705124,-91.214079)"
     id="layer1" />
  <rect
     width="5.5999999"
     height="87.300003"
     x="0.125"
     y="38.04105"
     id="rect428"
     style="fill:#ffffff;stroke:#231f20;stroke-width:0.25" />
  <rect
     width="2.8"
     height="8.6999998"
     x="0.125"
     y="37.941074"
     id="rect430"
     style="fill:#ffffff;stroke:#231f20;stroke-width:0.25" />
  <rect
     width="2.8"
     height="8.6999998"
     x="0.125"
     y="46.641026"
     id="rect432"
     style="fill:#000000;fill-opacity:1;stroke:#000000;stroke-width:0.25;stroke-opacity:1" />
  <rect
     width="2.8"
     height="8.6999998"
     x="0.125"
     y="55.341038"
     id="rect434"
     style="fill:#ffffff;stroke:#231f20;stroke-width:0.25" />
  <rect
     width="2.8"
     height="8.6999998"
     x="0.125"
     y="64.041054"
     id="rect436"
     style="fill:#000000;fill-opacity:1;stroke:#000000;stroke-width:0.25;stroke-opacity:1" />
  <rect
     width="2.8"
     height="8.6999998"
     x="0.125"
     y="72.841034"
     id="rect438"
     style="fill:#ffffff;stroke:#231f20;stroke-width:0.25" />
  <rect
     width="2.8"
     height="43.599998"
     x="0.125"
     y="81.541046"
     id="rect440"
     style="fill:#000000;fill-opacity:1;stroke:#000000;stroke-width:0.25;stroke-opacity:1" />
  <rect
     width="2.8"
     height="8.6999998"
     x="3.0250244"
     y="37.941074"
     id="rect442"
     style="fill:#000000;fill-opacity:1;stroke:#000000;stroke-width:0.25;stroke-opacity:1" />
  <rect
     width="2.8"
     height="8.6999998"
     x="3.0250244"
     y="46.641026"
     id="rect444"
     style="fill:#ffffff;stroke:#231f20;stroke-width:0.25" />
  <rect
     width="2.8"
     height="8.6999998"
     x="3.0250244"
     y="55.341038"
     id="rect446"
     style="fill:#000000;fill-opacity:1;stroke:#000000;stroke-width:0.25;stroke-opacity:1" />
  <rect
     width="2.8"
     height="8.6999998"
     x="3.0250244"
     y="64.041054"
     id="rect448"
     style="fill:#ffffff;stroke:#231f20;stroke-width:0.25" />
  <rect
     width="2.8"
     height="8.6999998"
     x="3.0250244"
     y="72.841034"
     id="rect450"
     style="fill:#000000;fill-opacity:1;stroke:#000000;stroke-width:0.25;stroke-opacity:1" />
  <rect
     width="2.8"
     height="43.599998"
     x="3.0250244"
     y="81.541046"
     id="rect452"
     style="fill:#ffffff;stroke:#231f20;stroke-width:0.25" />
  <text
     x="7.8667231"
     y="40.20628"
     transform="scale(1.0069757,0.99307263)"
     id="text454"
     style="font-size:8.05580521px;fill:#000000;fill-opacity:1;font-family:SansSerif">0</text>
  <text
     x="7.6941767"
     y="84.255112"
     transform="scale(1.0069757,0.99307263)"
     id="text456"
     style="font-size:8.05580521px;fill:#000000;fill-opacity:1;font-family:SansSerif">50</text>
  <text
     x="6.1996698"
     y="127.73107"
     transform="scale(1.0069757,0.99307263)"
     id="text458"
     style="font-size:8.05580521px;fill:#000000;fill-opacity:1;font-family:SansSerif">100 cm</text>
  <g
     transform="translate(-77.928904,0.17839845)"
     id="g392">
    <g
       id="g396">
      <g
         transform="translate(86.129909,-156.82982)"
         id="g504">
        <g
           id="g506">
          <path
             d="m 73,278.4 c 0,0 4.2,0.9 6.5,-0.3 2.3,-1.2 7.2,-4.5 7.7,-5 0.5,-0.5 10.8,-7.7 12.8,-9.7 2,-2 11.8,-11.1 14.5,-14.3 2.7,-3.2 10.4,-11.7 12.4,-18 2,-6.3 3.1,-11.6 2.8,-14.2 -0.3,-2.6 -1.1,-5.4 -1.8,-6.9 -0.7,-1.5 -7.2,-13.2 -7.7,-14.1 -0.4,-0.9 -8,-11.2 -12.9,-16.2 -4.9,-5 -8.5,-7 -11.1,-9.6 -2.6,-2.6 -5.5,-3.1 -6.1,-7.1 -0.6,-4 -0.5,-4.8 -0.2,-5.1 0.3,-0.3 0.7,-0.3 0.7,-0.3 0,0 0.5,0.1 0.8,0.4 0.3,0.3 0.5,2.2 0.5,2.2 0,0 0.4,2.8 0.4,3 0,0.2 0.8,1.8 1.2,1.8 0.4,0 1.4,0.3 1.4,0.5 0,0.2 0.5,1.7 0.9,1.9 0.5,0.2 3.3,2.6 3.3,2.6 7.2,6.4 7,6.5 7.6,7.1 0.4,0.4 5.2,5.4 6.9,7.1 1.6,1.6 4.5,6.1 5.3,6.9 0.8,0.8 4.8,7.6 5.6,9.1 0.9,1.5 4.6,8.7 5.3,10.3 0.6,1.6 2.2,5.2 1.2,11.1 -1,5.9 -3.1,12.3 -6.4,17.6 -3.4,5.3 -9.6,12.5 -10.7,13.6 -1.1,1.1 -8.8,8.6 -11.8,11.2 -3,2.7 -12.7,10 -14.9,11.4 -2.2,1.4 -5.4,3.5 -5.7,3.8 -0.3,0.3 -0.7,0.7 -1,1 -0.3,0.3 0.5,0.4 -1.6,0.4 -2.5,0 -2.3,-0.1 -5.7,-0.1"
             id="path508"
             style="stroke:#010101;stroke-width:0.5" />
          <path
             d="m 98.7,169.8 c 0,0 0.9,0.6 2.2,-0.2 1.3,-0.8 2.5,-0.8 2.8,-0.8 0.3,0 2.3,0.8 2.8,2.1 0.5,1.4 0.6,2.8 0.6,3.3 0,0.5 0.6,2.6 0.9,2.9 0.3,0.3 1,1.5 1.4,1.8 0.3,0.3 0,1.1 0.2,1.3"
             id="path510"
             style="fill:none;stroke:#010101;stroke-width:0.5" />
          <path
             d="m 102.4,173.1 c 0,0 0.1,-0.7 0.3,-1.2 0.2,-0.5 0.6,-0.8 1.1,-0.6 0.5,0.3 0.7,0.6 0.9,1.6 0.1,0.3 0.2,1.4 -0.4,1.4 -0.6,0 -0.6,0 -0.6,0"
             id="path512"
             style="fill:none;stroke:#010101;stroke-width:0.5" />
        </g>
        <g
           id="g514">
          <path
             d="m 55.2,157.8 c 0,0 -0.5,0.1 -0.8,0.4 -0.3,0.3 -0.5,2.2 -0.5,2.2 0,0 -0.4,2.8 -0.4,3 0,0.2 -0.8,1.8 -1.2,1.8 -0.4,0 -1.4,0.3 -1.4,0.5 0,0.2 -0.5,1.7 -0.9,1.9 -0.5,0.2 -3.3,2.6 -3.3,2.6 -7.2,6.4 -7,6.5 -7.6,7.1 -0.4,0.4 -5.2,5.4 -6.9,7.1 -1.7,1.7 -4.5,6.1 -5.3,6.9 -0.8,0.8 -4.8,7.6 -5.6,9.1 -0.9,1.5 -4.6,8.7 -5.3,10.3 -0.6,1.6 -2.2,5.2 -1.2,11.1 1,5.9 3.1,12.3 6.4,17.6 3.4,5.3 9.6,12.5 10.7,13.6 1.1,1.1 8.8,8.6 11.8,11.2 3,2.7 12.7,10 14.9,11.4 2.2,1.4 5.4,3.5 5.7,3.8 0.3,0.3 0.7,0.7 1,1 0.3,0.3 -0.5,0.4 1.6,0.4 2.5,0 2.5,-0.1 6,-0.1"
             id="path516"
             style="fill:none;stroke:#010101;stroke-width:0.5" />
          <path
             d="m 47.1,169.8 c 0,0 -0.9,0.6 -2.2,-0.2 -1.3,-0.8 -2.5,-0.8 -2.8,-0.8 -0.3,0 -2.3,0.8 -2.8,2.1 -0.5,1.3 -0.6,2.8 -0.6,3.3 0,0.5 -0.6,2.6 -0.9,2.9 -0.3,0.3 -1,1.5 -1.4,1.8 -0.3,0.3 0,1.1 -0.2,1.3"
             id="path518"
             style="fill:none;stroke:#010101;stroke-width:0.5" />
          <path
             d="m 43.4,173.1 c 0,0 -0.1,-0.7 -0.3,-1.2 -0.2,-0.5 -0.6,-0.8 -1.1,-0.6 -0.5,0.3 -0.7,0.6 -0.9,1.6 -0.1,0.3 -0.2,1.4 0.4,1.4 0.6,0 0.6,0 0.6,0"
             id="path520"
             style="fill:none;stroke:#010101;stroke-width:0.5" />
        </g>
        <line
           style="fill:none;stroke:#010101;stroke-width:0.5"
           x1="73.099998"
           y1="280.5"
           x2="73.099998"
           y2="280.29999"
           id="line522" />
        <line
           style="fill:none;stroke:#010101;stroke-width:0.5"
           x1="73.099998"
           y1="280.29999"
           x2="73"
           y2="157.7"
           id="line524" />
        <line
           style="fill:none;stroke:#010101;stroke-width:0.5"
           x1="55.200001"
           y1="157.8"
           x2="85"
           y2="157.8"
           id="line526" />
        <line
           style="fill:none;stroke:#010101;stroke-width:0.5"
           x1="52.299999"
           y1="165.10001"
           x2="73"
           y2="165.10001"
           id="line528" />
        <line
           style="fill:none;stroke:#010101;stroke-width:0.5"
           x1="50.200001"
           y1="167.39999"
           x2="73"
           y2="167.39999"
           id="line530" />
      </g>
      <text
         x="154.0791"
         y="133.26979"
         id="text572"
         style="font-size:8px;font-family:SansSerif">663</text>
    </g>
  </g>
</svg>
