<?xml version="1.0" encoding="UTF-8" standalone="no"?>
<!-- Created with Inkscape (http://www.inkscape.org/) -->

<svg
   xmlns:dc="http://purl.org/dc/elements/1.1/"
   xmlns:cc="http://creativecommons.org/ns#"
   xmlns:rdf="http://www.w3.org/1999/02/22-rdf-syntax-ns#"
   xmlns:svg="http://www.w3.org/2000/svg"
   xmlns="http://www.w3.org/2000/svg"
   version="1.1"
   width="71.658287"
   height="77.418823"
   id="svg4048">
  <title
     id="title3397">Bo64-512</title>
  <defs
     id="defs4050" />
  <metadata
     id="metadata4053">
    <rdf:RDF>
      <cc:Work
         rdf:about="">
        <dc:format>image/svg+xml</dc:format>
        <dc:type
           rdf:resource="http://purl.org/dc/dcmitype/StillImage" />
        <dc:title>Bo64-512</dc:title>
        <cc:license
           rdf:resource="http://creativecommons.org/licenses/by/3.0/" />
        <dc:creator>
          <cc:Agent>
            <dc:title>Néhémie Strupler</dc:title>
          </cc:Agent>
        </dc:creator>
        <dc:description>Pottery Drawing </dc:description>
        <dc:contributor>
          <cc:Agent>
            <dc:title />
          </cc:Agent>
        </dc:contributor>
        <dc:subject>
          <rdf:Bag>
            <rdf:li>Pottery</rdf:li>
            <rdf:li>Drawing</rdf:li>
            <rdf:li>Boğazköy</rdf:li>
            <rdf:li>Bogazkoy</rdf:li>
            <rdf:li>Hattusa</rdf:li>
            <rdf:li>Late Bronze Age</rdf:li>
            <rdf:li>Turkey</rdf:li>
          </rdf:Bag>
        </dc:subject>
        <dc:date>2015-11-03</dc:date>
        <dc:rights>
          <cc:Agent>
            <dc:title>Néhémie Strupler</dc:title>
          </cc:Agent>
        </dc:rights>
        <dc:relation />
      </cc:Work>
      <cc:License
         rdf:about="http://creativecommons.org/licenses/by/3.0/">
        <cc:permits
           rdf:resource="http://creativecommons.org/ns#Reproduction" />
        <cc:permits
           rdf:resource="http://creativecommons.org/ns#Distribution" />
        <cc:requires
           rdf:resource="http://creativecommons.org/ns#Notice" />
        <cc:requires
           rdf:resource="http://creativecommons.org/ns#Attribution" />
        <cc:permits
           rdf:resource="http://creativecommons.org/ns#DerivativeWorks" />
      </cc:License>
    </rdf:RDF>
  </metadata>
  <g
     transform="translate(-316.44464,-191.27325)"
     id="layer1" />
  <g
     transform="matrix(0.25,0,0,0.25,-29.483358,-11.953009)"
     id="Layer_2"
     style="stroke-width:0.625;stroke-miterlimit:4;stroke-dasharray:none">
    <g
       id="g238"
       style="stroke-width:0.625;stroke-miterlimit:4;stroke-dasharray:none">
      <line
         style="fill:none;stroke:#000000;stroke-width:0.625;stroke-miterlimit:4;stroke-dasharray:none"
         x1="261.29999"
         y1="48.299999"
         x2="261.29999"
         y2="351.10001"
         id="line240" />
      <g
         id="g242"
         style="stroke-width:0.625;stroke-miterlimit:4;stroke-dasharray:none">
        <path
           d="m 335,48.7 c 15.3,-3.4 0,9.3 -2.2,11.1 -3.7,3.1 -3.8,10.3 -3.8,10.3 -0.9,17.4 3.4,4.9 24.4,36.1 21.1,31.2 23.6,63.3 24.2,85.4 0.6,22.2 -30.6,84.6 -43.3,106.2 -12.7,21.6 -42.8,55.2 -42.8,55.2 h -30.3 v -10.7 l 18.2,-3.8 c 18.2,-4.8 37.5,-19.5 69.7,-90.4 14.6,-32.1 22,-60.8 14.5,-90 C 360.1,144.6 357,123.9 336.8,101.8 330.7,95.2 324.4,92.4 318.7,78 312.9,63.6 334.6,48.8 335,48.7 z"
           id="path244"
           style="stroke:#000000;stroke-width:0.625;stroke-miterlimit:4;stroke-dasharray:none" />
        <path
           d="m 362.5,121.8 25.8,17.2 c 0,0 25.9,19.4 11.7,42.7 -14.1,23.2 -21.1,35.2 -21.1,35.2 L 360,243.5"
           id="path246"
           style="fill:none;stroke:#000000;stroke-width:0.625;stroke-miterlimit:4;stroke-dasharray:none" />
        <path
           d="m 374.6,159.2 c 0,0 2.7,-5.6 6.7,-4.2 4,1.4 5,6.2 5,6.2 0,0 1.3,5.4 1.2,7.2 -0.1,4.1 -1.7,6 -2.7,7.2 -1.6,1.8 -3.9,1.8 -8.4,-2.7"
           id="path248"
           style="fill:none;stroke:#000000;stroke-width:0.625;stroke-miterlimit:4;stroke-dasharray:none" />
      </g>
      <path
         d="m 248.2,167.4 c 10.1,-46.1 23.3,-22.7 25.2,-0.2"
         id="path250"
         style="fill:none;stroke:#000000;stroke-width:0.625;stroke-miterlimit:4;stroke-dasharray:none" />
      <g
         id="g252"
         style="stroke-width:0.625;stroke-miterlimit:4;stroke-dasharray:none">
        <path
           d="m 183.8,48.3 c -3.1,0.1 -5.5,2 5.8,11.6 3.7,3.1 3.8,10.3 3.8,10.3 0.9,17.4 -3.4,4.9 -24.4,36.1 -21.1,31.2 -23.6,63.3 -24.2,85.4 -0.6,22.1 30.6,84.6 43.3,106.2 12.7,21.6 42.8,55.2 42.8,55.2 h 30.3 v -10.7"
           id="path254"
           style="fill:none;stroke:#000000;stroke-width:0.625;stroke-miterlimit:4;stroke-dasharray:none" />
        <path
           d="M 160,121.8 134.2,139 c 0,0 -25.9,19.4 -11.7,42.7 14.2,23.3 21.1,35.2 21.1,35.2 l 15.3,22"
           id="path256"
           style="fill:none;stroke:#000000;stroke-width:0.625;stroke-miterlimit:4;stroke-dasharray:none" />
        <path
           d="m 147.9,159.2 c 0,0 -2.7,-5.6 -6.7,-4.2 -4.1,1.4 -5,6.2 -5,6.2 0,0 -1.3,5.4 -1.2,7.2 0.1,4.1 1.7,6 2.7,7.2 1.6,1.8 3.9,1.8 8.4,-2.7"
           id="path258"
           style="fill:none;stroke:#000000;stroke-width:0.625;stroke-miterlimit:4;stroke-dasharray:none" />
      </g>
      <line
         style="fill:none;stroke:#000000;stroke-width:0.625;stroke-miterlimit:4;stroke-dasharray:none"
         x1="183.7"
         y1="48.299999"
         x2="324.39999"
         y2="48.299999"
         id="line260" />
    </g>
  </g>
  <g
     transform="matrix(0.25,0,0,0.25,-29.483358,-11.953009)"
     id="Layer_3">
    <g
       id="g263">
      <rect
         width="70.900002"
         height="7.0999999"
         x="313.39999"
         y="342"
         id="rect265"
         style="fill:#ffffff;stroke:#000000;stroke-width:0.25" />
      <rect
         width="7.0999999"
         height="3.5"
         x="313.29999"
         y="345.60001"
         id="rect267"
         style="fill:#ffffff;stroke:#000000;stroke-width:0.25" />
      <rect
         width="7.0999999"
         height="3.5"
         x="320.39999"
         y="345.60001"
         id="rect269"
         style="stroke:#000000;stroke-width:0.25" />
      <rect
         width="7.0999999"
         height="3.5"
         x="327.5"
         y="345.60001"
         id="rect271"
         style="fill:#ffffff;stroke:#000000;stroke-width:0.25" />
      <rect
         width="7.0999999"
         height="3.5"
         x="334.60001"
         y="345.60001"
         id="rect273"
         style="stroke:#000000;stroke-width:0.25" />
      <rect
         width="7.0999999"
         height="3.5"
         x="341.70001"
         y="345.60001"
         id="rect275"
         style="fill:#ffffff;stroke:#000000;stroke-width:0.25" />
      <rect
         width="35.400002"
         height="3.5"
         x="348.79999"
         y="345.60001"
         id="rect277"
         style="stroke:#000000;stroke-width:0.25" />
      <rect
         width="7.0999999"
         height="3.5"
         x="313.29999"
         y="342"
         id="rect279"
         style="stroke:#000000;stroke-width:0.25" />
      <rect
         width="7.0999999"
         height="3.5"
         x="320.39999"
         y="342"
         id="rect281"
         style="fill:#ffffff;stroke:#000000;stroke-width:0.25" />
      <rect
         width="7.0999999"
         height="3.5"
         x="327.5"
         y="342"
         id="rect283"
         style="stroke:#000000;stroke-width:0.25" />
      <rect
         width="7.0999999"
         height="3.5"
         x="334.60001"
         y="342"
         id="rect285"
         style="fill:#ffffff;stroke:#000000;stroke-width:0.25" />
      <rect
         width="7.0999999"
         height="3.5"
         x="341.70001"
         y="342"
         id="rect287"
         style="stroke:#000000;stroke-width:0.25" />
      <rect
         width="35.400002"
         height="3.5"
         x="348.79999"
         y="342"
         id="rect289"
         style="fill:#ffffff;stroke:#000000;stroke-width:0.25" />
      <text
         transform="translate(312.5547,340.5532)"
         id="text291"
         style="font-size:3px;font-family:SansSerif">0</text>
      <text
         transform="translate(347.8047,340.5532)"
         id="text293"
         style="font-size:3px;font-family:SansSerif">5</text>
      <text
         transform="translate(381.3047,340.5532)"
         id="text295"
         style="font-size:3px;font-family:SansSerif">10 cm</text>
    </g>
    <text
       transform="translate(315.6621,357.209)"
       id="text297">
      <tspan
         x="0"
         y="0"
         id="tspan299"
         style="font-size:3px;font-family:SansSerif">Orthmann 1984-184:w/512</tspan>
      <tspan
         x="0"
         y="3.5999999"
         id="tspan301"
         style="font-size:3px;font-family:SansSerif" />
    </text>
  </g>
</svg>
